{
  "development": {
    "username": "root",
    "password": "V@rtisT12",
    "database": "VertisDb",
    "host": "127.0.0.1",
    "dialect": "mysql",
    "operatorsAliases": false
  },
  "test": {
    "username": "root",
    "password": null,
    "database": "database_test",
    "host": "127.0.0.1",
    "dialect": "mysql",
    "operatorsAliases": false
  },
  "production": {
    "username": "bfdb472ebb2605",
    "password": "193c23ce",
    "database": "heroku_56888f4e91d639e",
    "host": "us-cdbr-iron-east-02.cleardb.net",
    "dialect": "mysql",
    "operatorsAliases": false
  }
}